^C:\C++\STUDIA\PROJECT1\PROJECT1\ŹRóDłO.CPP
C:\C++\STUDIA\PROJECT1\PROJECT1\ZWIERZE.H
C:\VISUAL STUDIO\VC\TOOLS\MSVC\14.11.25503\INCLUDE\STRING
C:\VISUAL STUDIO\VC\TOOLS\MSVC\14.11.25503\INCLUDE\ISTREAM
C:\VISUAL STUDIO\VC\TOOLS\MSVC\14.11.25503\INCLUDE\OSTREAM
C:\VISUAL STUDIO\VC\TOOLS\MSVC\14.11.25503\INCLUDE\IOS
C:\VISUAL STUDIO\VC\TOOLS\MSVC\14.11.25503\INCLUDE\XLOCNUM
C:\VISUAL STUDIO\VC\TOOLS\MSVC\14.11.25503\INCLUDE\CLIMITS
C:\VISUAL STUDIO\VC\TOOLS\MSVC\14.11.25503\INCLUDE\YVALS.H
C:\VISUAL STUDIO\VC\TOOLS\MSVC\14.11.25503\INCLUDE\XKEYCHECK.H
C:\VISUAL STUDIO\VC\TOOLS\MSVC\14.11.25503\INCLUDE\CRTDEFS.H
C:\VISUAL STUDIO\VC\TOOLS\MSVC\14.11.25503\INCLUDE\VCRUNTIME.H
C:\VISUAL STUDIO\VC\TOOLS\MSVC\14.11.25503\INCLUDE\SAL.H
C:\VISUAL STUDIO\VC\TOOLS\MSVC\14.11.25503\INCLUDE\CONCURRENCYSAL.H
C:\VISUAL STUDIO\VC\TOOLS\MSVC\14.11.25503\INCLUDE\VADEFS.H
C:\PROGRAM FILES (X86)\WINDOWS KITS\10\INCLUDE\10.0.16299.0\UCRT\CORECRT.H
C:\VISUAL STUDIO\VC\TOOLS\MSVC\14.11.25503\INCLUDE\USE_ANSI.H
C:\VISUAL STUDIO\VC\TOOLS\MSVC\14.11.25503\INCLUDE\LIMITS.H
C:\VISUAL STUDIO\VC\TOOLS\MSVC\14.11.25503\INCLUDE\CMATH
C:\VISUAL STUDIO\VC\TOOLS\MSVC\14.11.25503\INCLUDE\CSTDLIB
C:\PROGRAM FILES (X86)\WINDOWS KITS\10\INCLUDE\10.0.16299.0\UCRT\STDLIB.H
C:\PROGRAM FILES (X86)\WINDOWS KITS\10\INCLUDE\10.0.16299.0\UCRT\CORECRT_MALLOC.H
C:\PROGRAM FILES (X86)\WINDOWS KITS\10\INCLUDE\10.0.16299.0\UCRT\CORECRT_SEARCH.H
C:\PROGRAM FILES (X86)\WINDOWS KITS\10\INCLUDE\10.0.16299.0\UCRT\STDDEF.H
C:\PROGRAM FILES (X86)\WINDOWS KITS\10\INCLUDE\10.0.16299.0\UCRT\CORECRT_WSTDLIB.H
C:\PROGRAM FILES (X86)\WINDOWS KITS\10\INCLUDE\10.0.16299.0\UCRT\MATH.H
C:\PROGRAM FILES (X86)\WINDOWS KITS\10\INCLUDE\10.0.16299.0\UCRT\CORECRT_MATH.H
C:\VISUAL STUDIO\VC\TOOLS\MSVC\14.11.25503\INCLUDE\XTGMATH.H
C:\VISUAL STUDIO\VC\TOOLS\MSVC\14.11.25503\INCLUDE\XTR1COMMON
C:\VISUAL STUDIO\VC\TOOLS\MSVC\14.11.25503\INCLUDE\CSTDIO
C:\PROGRAM FILES (X86)\WINDOWS KITS\10\INCLUDE\10.0.16299.0\UCRT\STDIO.H
C:\PROGRAM FILES (X86)\WINDOWS KITS\10\INCLUDE\10.0.16299.0\UCRT\CORECRT_WSTDIO.H
C:\PROGRAM FILES (X86)\WINDOWS KITS\10\INCLUDE\10.0.16299.0\UCRT\CORECRT_STDIO_CONFIG.H
C:\VISUAL STUDIO\VC\TOOLS\MSVC\14.11.25503\INCLUDE\STREAMBUF
C:\VISUAL STUDIO\VC\TOOLS\MSVC\14.11.25503\INCLUDE\XIOSBASE
C:\VISUAL STUDIO\VC\TOOLS\MSVC\14.11.25503\INCLUDE\XLOCALE
C:\VISUAL STUDIO\VC\TOOLS\MSVC\14.11.25503\INCLUDE\CSTRING
C:\PROGRAM FILES (X86)\WINDOWS KITS\10\INCLUDE\10.0.16299.0\UCRT\STRING.H
C:\PROGRAM FILES (X86)\WINDOWS KITS\10\INCLUDE\10.0.16299.0\UCRT\CORECRT_MEMORY.H
C:\PROGRAM FILES (X86)\WINDOWS KITS\10\INCLUDE\10.0.16299.0\UCRT\CORECRT_MEMCPY_S.H
C:\PROGRAM FILES (X86)\WINDOWS KITS\10\INCLUDE\10.0.16299.0\UCRT\ERRNO.H
C:\VISUAL STUDIO\VC\TOOLS\MSVC\14.11.25503\INCLUDE\VCRUNTIME_STRING.H
C:\PROGRAM FILES (X86)\WINDOWS KITS\10\INCLUDE\10.0.16299.0\UCRT\CORECRT_WSTRING.H
C:\VISUAL STUDIO\VC\TOOLS\MSVC\14.11.25503\INCLUDE\STDEXCEPT
C:\VISUAL STUDIO\VC\TOOLS\MSVC\14.11.25503\INCLUDE\EXCEPTION
C:\VISUAL STUDIO\VC\TOOLS\MSVC\14.11.25503\INCLUDE\TYPE_TRAITS
C:\VISUAL STUDIO\VC\TOOLS\MSVC\14.11.25503\INCLUDE\XSTDDEF
C:\VISUAL STUDIO\VC\TOOLS\MSVC\14.11.25503\INCLUDE\CSTDDEF
C:\VISUAL STUDIO\VC\TOOLS\MSVC\14.11.25503\INCLUDE\INITIALIZER_LIST
C:\PROGRAM FILES (X86)\WINDOWS KITS\10\INCLUDE\10.0.16299.0\UCRT\MALLOC.H
C:\VISUAL STUDIO\VC\TOOLS\MSVC\14.11.25503\INCLUDE\VCRUNTIME_EXCEPTION.H
C:\VISUAL STUDIO\VC\TOOLS\MSVC\14.11.25503\INCLUDE\EH.H
C:\PROGRAM FILES (X86)\WINDOWS KITS\10\INCLUDE\10.0.16299.0\UCRT\CORECRT_TERMINATE.H
C:\VISUAL STUDIO\VC\TOOLS\MSVC\14.11.25503\INCLUDE\XSTRING
C:\VISUAL STUDIO\VC\TOOLS\MSVC\14.11.25503\INCLUDE\XMEMORY0
C:\VISUAL STUDIO\VC\TOOLS\MSVC\14.11.25503\INCLUDE\CSTDINT
C:\VISUAL STUDIO\VC\TOOLS\MSVC\14.11.25503\INCLUDE\STDINT.H
C:\VISUAL STUDIO\VC\TOOLS\MSVC\14.11.25503\INCLUDE\LIMITS
C:\VISUAL STUDIO\VC\TOOLS\MSVC\14.11.25503\INCLUDE\YMATH.H
C:\VISUAL STUDIO\VC\TOOLS\MSVC\14.11.25503\INCLUDE\CFLOAT
C:\PROGRAM FILES (X86)\WINDOWS KITS\10\INCLUDE\10.0.16299.0\UCRT\FLOAT.H
C:\VISUAL STUDIO\VC\TOOLS\MSVC\14.11.25503\INCLUDE\CWCHAR
C:\PROGRAM FILES (X86)\WINDOWS KITS\10\INCLUDE\10.0.16299.0\UCRT\WCHAR.H
C:\PROGRAM FILES (X86)\WINDOWS KITS\10\INCLUDE\10.0.16299.0\UCRT\CORECRT_WCONIO.H
C:\PROGRAM FILES (X86)\WINDOWS KITS\10\INCLUDE\10.0.16299.0\UCRT\CORECRT_WCTYPE.H
C:\PROGRAM FILES (X86)\WINDOWS KITS\10\INCLUDE\10.0.16299.0\UCRT\CORECRT_WDIRECT.H
C:\PROGRAM FILES (X86)\WINDOWS KITS\10\INCLUDE\10.0.16299.0\UCRT\CORECRT_WIO.H
C:\PROGRAM FILES (X86)\WINDOWS KITS\10\INCLUDE\10.0.16299.0\UCRT\CORECRT_SHARE.H
C:\PROGRAM FILES (X86)\WINDOWS KITS\10\INCLUDE\10.0.16299.0\UCRT\CORECRT_WPROCESS.H
C:\PROGRAM FILES (X86)\WINDOWS KITS\10\INCLUDE\10.0.16299.0\UCRT\CORECRT_WTIME.H
C:\PROGRAM FILES (X86)\WINDOWS KITS\10\INCLUDE\10.0.16299.0\UCRT\SYS\STAT.H
C:\PROGRAM FILES (X86)\WINDOWS KITS\10\INCLUDE\10.0.16299.0\UCRT\SYS\TYPES.H
C:\VISUAL STUDIO\VC\TOOLS\MSVC\14.11.25503\INCLUDE\NEW
C:\VISUAL STUDIO\VC\TOOLS\MSVC\14.11.25503\INCLUDE\VCRUNTIME_NEW.H
C:\VISUAL STUDIO\VC\TOOLS\MSVC\14.11.25503\INCLUDE\XUTILITY
C:\VISUAL STUDIO\VC\TOOLS\MSVC\14.11.25503\INCLUDE\UTILITY
C:\VISUAL STUDIO\VC\TOOLS\MSVC\14.11.25503\INCLUDE\IOSFWD
C:\PROGRAM FILES (X86)\WINDOWS KITS\10\INCLUDE\10.0.16299.0\UCRT\CRTDBG.H
C:\VISUAL STUDIO\VC\TOOLS\MSVC\14.11.25503\INCLUDE\VCRUNTIME_NEW_DEBUG.H
C:\VISUAL STUDIO\VC\TOOLS\MSVC\14.11.25503\INCLUDE\XATOMIC0.H
C:\VISUAL STUDIO\VC\TOOLS\MSVC\14.11.25503\INCLUDE\INTRIN0.H
C:\VISUAL STUDIO\VC\TOOLS\MSVC\14.11.25503\INCLUDE\TYPEINFO
C:\VISUAL STUDIO\VC\TOOLS\MSVC\14.11.25503\INCLUDE\VCRUNTIME_TYPEINFO.H
C:\VISUAL STUDIO\VC\TOOLS\MSVC\14.11.25503\INCLUDE\XLOCINFO
C:\VISUAL STUDIO\VC\TOOLS\MSVC\14.11.25503\INCLUDE\XLOCINFO.H
C:\PROGRAM FILES (X86)\WINDOWS KITS\10\INCLUDE\10.0.16299.0\UCRT\CTYPE.H
C:\PROGRAM FILES (X86)\WINDOWS KITS\10\INCLUDE\10.0.16299.0\UCRT\LOCALE.H
C:\VISUAL STUDIO\VC\TOOLS\MSVC\14.11.25503\INCLUDE\XFACET
C:\VISUAL STUDIO\VC\TOOLS\MSVC\14.11.25503\INCLUDE\SYSTEM_ERROR
C:\VISUAL STUDIO\VC\TOOLS\MSVC\14.11.25503\INCLUDE\CERRNO
C:\VISUAL STUDIO\VC\TOOLS\MSVC\14.11.25503\INCLUDE\XCALL_ONCE.H
C:\PROGRAM FILES (X86)\WINDOWS KITS\10\INCLUDE\10.0.16299.0\UCRT\SHARE.H
C:\VISUAL STUDIO\VC\TOOLS\MSVC\14.11.25503\INCLUDE\XSTRING_INSERT.H
C:\C++\STUDIA\PROJECT1\PROJECT1\PINGWIN.H
C:\C++\STUDIA\PROJECT1\PROJECT1\LEW.H
C:\C++\STUDIA\PROJECT1\PROJECT1\SLON.H
C:\VISUAL STUDIO\VC\TOOLS\MSVC\14.11.25503\INCLUDE\IOSTREAM
C:\WINDOWS\GLOBALIZATION\SORTING\SORTDEFAULT.NLS
C:\VISUAL STUDIO\VC\TOOLS\MSVC\14.11.25503\BIN\HOSTX86\X86\1045\CLUI.DLL
C:\WINDOWS\SYSTEM32\TZRES.DLL
^C:\C++\STUDIA\PROJECT1\PROJECT1\ZWIERZE.CPP
C:\C++\STUDIA\PROJECT1\PROJECT1\ZWIERZE.H
C:\VISUAL STUDIO\VC\TOOLS\MSVC\14.11.25503\INCLUDE\STRING
C:\VISUAL STUDIO\VC\TOOLS\MSVC\14.11.25503\INCLUDE\ISTREAM
C:\VISUAL STUDIO\VC\TOOLS\MSVC\14.11.25503\INCLUDE\OSTREAM
C:\VISUAL STUDIO\VC\TOOLS\MSVC\14.11.25503\INCLUDE\IOS
C:\VISUAL STUDIO\VC\TOOLS\MSVC\14.11.25503\INCLUDE\XLOCNUM
C:\VISUAL STUDIO\VC\TOOLS\MSVC\14.11.25503\INCLUDE\CLIMITS
C:\VISUAL STUDIO\VC\TOOLS\MSVC\14.11.25503\INCLUDE\YVALS.H
C:\VISUAL STUDIO\VC\TOOLS\MSVC\14.11.25503\INCLUDE\XKEYCHECK.H
C:\VISUAL STUDIO\VC\TOOLS\MSVC\14.11.25503\INCLUDE\CRTDEFS.H
C:\VISUAL STUDIO\VC\TOOLS\MSVC\14.11.25503\INCLUDE\VCRUNTIME.H
C:\VISUAL STUDIO\VC\TOOLS\MSVC\14.11.25503\INCLUDE\SAL.H
C:\VISUAL STUDIO\VC\TOOLS\MSVC\14.11.25503\INCLUDE\CONCURRENCYSAL.H
C:\VISUAL STUDIO\VC\TOOLS\MSVC\14.11.25503\INCLUDE\VADEFS.H
C:\PROGRAM FILES (X86)\WINDOWS KITS\10\INCLUDE\10.0.16299.0\UCRT\CORECRT.H
C:\VISUAL STUDIO\VC\TOOLS\MSVC\14.11.25503\INCLUDE\USE_ANSI.H
C:\VISUAL STUDIO\VC\TOOLS\MSVC\14.11.25503\INCLUDE\LIMITS.H
C:\VISUAL STUDIO\VC\TOOLS\MSVC\14.11.25503\INCLUDE\CMATH
C:\VISUAL STUDIO\VC\TOOLS\MSVC\14.11.25503\INCLUDE\CSTDLIB
C:\PROGRAM FILES (X86)\WINDOWS KITS\10\INCLUDE\10.0.16299.0\UCRT\STDLIB.H
C:\PROGRAM FILES (X86)\WINDOWS KITS\10\INCLUDE\10.0.16299.0\UCRT\CORECRT_MALLOC.H
C:\PROGRAM FILES (X86)\WINDOWS KITS\10\INCLUDE\10.0.16299.0\UCRT\CORECRT_SEARCH.H
C:\PROGRAM FILES (X86)\WINDOWS KITS\10\INCLUDE\10.0.16299.0\UCRT\STDDEF.H
C:\PROGRAM FILES (X86)\WINDOWS KITS\10\INCLUDE\10.0.16299.0\UCRT\CORECRT_WSTDLIB.H
C:\PROGRAM FILES (X86)\WINDOWS KITS\10\INCLUDE\10.0.16299.0\UCRT\MATH.H
C:\PROGRAM FILES (X86)\WINDOWS KITS\10\INCLUDE\10.0.16299.0\UCRT\CORECRT_MATH.H
C:\VISUAL STUDIO\VC\TOOLS\MSVC\14.11.25503\INCLUDE\XTGMATH.H
C:\VISUAL STUDIO\VC\TOOLS\MSVC\14.11.25503\INCLUDE\XTR1COMMON
C:\VISUAL STUDIO\VC\TOOLS\MSVC\14.11.25503\INCLUDE\CSTDIO
C:\PROGRAM FILES (X86)\WINDOWS KITS\10\INCLUDE\10.0.16299.0\UCRT\STDIO.H
C:\PROGRAM FILES (X86)\WINDOWS KITS\10\INCLUDE\10.0.16299.0\UCRT\CORECRT_WSTDIO.H
C:\PROGRAM FILES (X86)\WINDOWS KITS\10\INCLUDE\10.0.16299.0\UCRT\CORECRT_STDIO_CONFIG.H
C:\VISUAL STUDIO\VC\TOOLS\MSVC\14.11.25503\INCLUDE\STREAMBUF
C:\VISUAL STUDIO\VC\TOOLS\MSVC\14.11.25503\INCLUDE\XIOSBASE
C:\VISUAL STUDIO\VC\TOOLS\MSVC\14.11.25503\INCLUDE\XLOCALE
C:\VISUAL STUDIO\VC\TOOLS\MSVC\14.11.25503\INCLUDE\CSTRING
C:\PROGRAM FILES (X86)\WINDOWS KITS\10\INCLUDE\10.0.16299.0\UCRT\STRING.H
C:\PROGRAM FILES (X86)\WINDOWS KITS\10\INCLUDE\10.0.16299.0\UCRT\CORECRT_MEMORY.H
C:\PROGRAM FILES (X86)\WINDOWS KITS\10\INCLUDE\10.0.16299.0\UCRT\CORECRT_MEMCPY_S.H
C:\PROGRAM FILES (X86)\WINDOWS KITS\10\INCLUDE\10.0.16299.0\UCRT\ERRNO.H
C:\VISUAL STUDIO\VC\TOOLS\MSVC\14.11.25503\INCLUDE\VCRUNTIME_STRING.H
C:\PROGRAM FILES (X86)\WINDOWS KITS\10\INCLUDE\10.0.16299.0\UCRT\CORECRT_WSTRING.H
C:\VISUAL STUDIO\VC\TOOLS\MSVC\14.11.25503\INCLUDE\STDEXCEPT
C:\VISUAL STUDIO\VC\TOOLS\MSVC\14.11.25503\INCLUDE\EXCEPTION
C:\VISUAL STUDIO\VC\TOOLS\MSVC\14.11.25503\INCLUDE\TYPE_TRAITS
C:\VISUAL STUDIO\VC\TOOLS\MSVC\14.11.25503\INCLUDE\XSTDDEF
C:\VISUAL STUDIO\VC\TOOLS\MSVC\14.11.25503\INCLUDE\CSTDDEF
C:\VISUAL STUDIO\VC\TOOLS\MSVC\14.11.25503\INCLUDE\INITIALIZER_LIST
C:\PROGRAM FILES (X86)\WINDOWS KITS\10\INCLUDE\10.0.16299.0\UCRT\MALLOC.H
C:\VISUAL STUDIO\VC\TOOLS\MSVC\14.11.25503\INCLUDE\VCRUNTIME_EXCEPTION.H
C:\VISUAL STUDIO\VC\TOOLS\MSVC\14.11.25503\INCLUDE\EH.H
C:\PROGRAM FILES (X86)\WINDOWS KITS\10\INCLUDE\10.0.16299.0\UCRT\CORECRT_TERMINATE.H
C:\VISUAL STUDIO\VC\TOOLS\MSVC\14.11.25503\INCLUDE\XSTRING
C:\VISUAL STUDIO\VC\TOOLS\MSVC\14.11.25503\INCLUDE\XMEMORY0
C:\VISUAL STUDIO\VC\TOOLS\MSVC\14.11.25503\INCLUDE\CSTDINT
C:\VISUAL STUDIO\VC\TOOLS\MSVC\14.11.25503\INCLUDE\STDINT.H
C:\VISUAL STUDIO\VC\TOOLS\MSVC\14.11.25503\INCLUDE\LIMITS
C:\VISUAL STUDIO\VC\TOOLS\MSVC\14.11.25503\INCLUDE\YMATH.H
C:\VISUAL STUDIO\VC\TOOLS\MSVC\14.11.25503\INCLUDE\CFLOAT
C:\PROGRAM FILES (X86)\WINDOWS KITS\10\INCLUDE\10.0.16299.0\UCRT\FLOAT.H
C:\VISUAL STUDIO\VC\TOOLS\MSVC\14.11.25503\INCLUDE\CWCHAR
C:\PROGRAM FILES (X86)\WINDOWS KITS\10\INCLUDE\10.0.16299.0\UCRT\WCHAR.H
C:\PROGRAM FILES (X86)\WINDOWS KITS\10\INCLUDE\10.0.16299.0\UCRT\CORECRT_WCONIO.H
C:\PROGRAM FILES (X86)\WINDOWS KITS\10\INCLUDE\10.0.16299.0\UCRT\CORECRT_WCTYPE.H
C:\PROGRAM FILES (X86)\WINDOWS KITS\10\INCLUDE\10.0.16299.0\UCRT\CORECRT_WDIRECT.H
C:\PROGRAM FILES (X86)\WINDOWS KITS\10\INCLUDE\10.0.16299.0\UCRT\CORECRT_WIO.H
C:\PROGRAM FILES (X86)\WINDOWS KITS\10\INCLUDE\10.0.16299.0\UCRT\CORECRT_SHARE.H
C:\PROGRAM FILES (X86)\WINDOWS KITS\10\INCLUDE\10.0.16299.0\UCRT\CORECRT_WPROCESS.H
C:\PROGRAM FILES (X86)\WINDOWS KITS\10\INCLUDE\10.0.16299.0\UCRT\CORECRT_WTIME.H
C:\PROGRAM FILES (X86)\WINDOWS KITS\10\INCLUDE\10.0.16299.0\UCRT\SYS\STAT.H
C:\PROGRAM FILES (X86)\WINDOWS KITS\10\INCLUDE\10.0.16299.0\UCRT\SYS\TYPES.H
C:\VISUAL STUDIO\VC\TOOLS\MSVC\14.11.25503\INCLUDE\NEW
C:\VISUAL STUDIO\VC\TOOLS\MSVC\14.11.25503\INCLUDE\VCRUNTIME_NEW.H
C:\VISUAL STUDIO\VC\TOOLS\MSVC\14.11.25503\INCLUDE\XUTILITY
C:\VISUAL STUDIO\VC\TOOLS\MSVC\14.11.25503\INCLUDE\UTILITY
C:\VISUAL STUDIO\VC\TOOLS\MSVC\14.11.25503\INCLUDE\IOSFWD
C:\PROGRAM FILES (X86)\WINDOWS KITS\10\INCLUDE\10.0.16299.0\UCRT\CRTDBG.H
C:\VISUAL STUDIO\VC\TOOLS\MSVC\14.11.25503\INCLUDE\VCRUNTIME_NEW_DEBUG.H
C:\VISUAL STUDIO\VC\TOOLS\MSVC\14.11.25503\INCLUDE\XATOMIC0.H
C:\VISUAL STUDIO\VC\TOOLS\MSVC\14.11.25503\INCLUDE\INTRIN0.H
C:\VISUAL STUDIO\VC\TOOLS\MSVC\14.11.25503\INCLUDE\TYPEINFO
C:\VISUAL STUDIO\VC\TOOLS\MSVC\14.11.25503\INCLUDE\VCRUNTIME_TYPEINFO.H
C:\VISUAL STUDIO\VC\TOOLS\MSVC\14.11.25503\INCLUDE\XLOCINFO
C:\VISUAL STUDIO\VC\TOOLS\MSVC\14.11.25503\INCLUDE\XLOCINFO.H
C:\PROGRAM FILES (X86)\WINDOWS KITS\10\INCLUDE\10.0.16299.0\UCRT\CTYPE.H
C:\PROGRAM FILES (X86)\WINDOWS KITS\10\INCLUDE\10.0.16299.0\UCRT\LOCALE.H
C:\VISUAL STUDIO\VC\TOOLS\MSVC\14.11.25503\INCLUDE\XFACET
C:\VISUAL STUDIO\VC\TOOLS\MSVC\14.11.25503\INCLUDE\SYSTEM_ERROR
C:\VISUAL STUDIO\VC\TOOLS\MSVC\14.11.25503\INCLUDE\CERRNO
C:\VISUAL STUDIO\VC\TOOLS\MSVC\14.11.25503\INCLUDE\XCALL_ONCE.H
C:\PROGRAM FILES (X86)\WINDOWS KITS\10\INCLUDE\10.0.16299.0\UCRT\SHARE.H
C:\VISUAL STUDIO\VC\TOOLS\MSVC\14.11.25503\INCLUDE\XSTRING_INSERT.H
^C:\C++\STUDIA\PROJECT1\PROJECT1\SLON.CPP
C:\C++\STUDIA\PROJECT1\PROJECT1\SLON.H
C:\C++\STUDIA\PROJECT1\PROJECT1\ZWIERZE.H
C:\VISUAL STUDIO\VC\TOOLS\MSVC\14.11.25503\INCLUDE\STRING
C:\VISUAL STUDIO\VC\TOOLS\MSVC\14.11.25503\INCLUDE\ISTREAM
C:\VISUAL STUDIO\VC\TOOLS\MSVC\14.11.25503\INCLUDE\OSTREAM
C:\VISUAL STUDIO\VC\TOOLS\MSVC\14.11.25503\INCLUDE\IOS
C:\VISUAL STUDIO\VC\TOOLS\MSVC\14.11.25503\INCLUDE\XLOCNUM
C:\VISUAL STUDIO\VC\TOOLS\MSVC\14.11.25503\INCLUDE\CLIMITS
C:\VISUAL STUDIO\VC\TOOLS\MSVC\14.11.25503\INCLUDE\YVALS.H
C:\VISUAL STUDIO\VC\TOOLS\MSVC\14.11.25503\INCLUDE\XKEYCHECK.H
C:\VISUAL STUDIO\VC\TOOLS\MSVC\14.11.25503\INCLUDE\CRTDEFS.H
C:\VISUAL STUDIO\VC\TOOLS\MSVC\14.11.25503\INCLUDE\VCRUNTIME.H
C:\VISUAL STUDIO\VC\TOOLS\MSVC\14.11.25503\INCLUDE\SAL.H
C:\VISUAL STUDIO\VC\TOOLS\MSVC\14.11.25503\INCLUDE\CONCURRENCYSAL.H
C:\VISUAL STUDIO\VC\TOOLS\MSVC\14.11.25503\INCLUDE\VADEFS.H
C:\PROGRAM FILES (X86)\WINDOWS KITS\10\INCLUDE\10.0.16299.0\UCRT\CORECRT.H
C:\VISUAL STUDIO\VC\TOOLS\MSVC\14.11.25503\INCLUDE\USE_ANSI.H
C:\VISUAL STUDIO\VC\TOOLS\MSVC\14.11.25503\INCLUDE\LIMITS.H
C:\VISUAL STUDIO\VC\TOOLS\MSVC\14.11.25503\INCLUDE\CMATH
C:\VISUAL STUDIO\VC\TOOLS\MSVC\14.11.25503\INCLUDE\CSTDLIB
C:\PROGRAM FILES (X86)\WINDOWS KITS\10\INCLUDE\10.0.16299.0\UCRT\STDLIB.H
C:\PROGRAM FILES (X86)\WINDOWS KITS\10\INCLUDE\10.0.16299.0\UCRT\CORECRT_MALLOC.H
C:\PROGRAM FILES (X86)\WINDOWS KITS\10\INCLUDE\10.0.16299.0\UCRT\CORECRT_SEARCH.H
C:\PROGRAM FILES (X86)\WINDOWS KITS\10\INCLUDE\10.0.16299.0\UCRT\STDDEF.H
C:\PROGRAM FILES (X86)\WINDOWS KITS\10\INCLUDE\10.0.16299.0\UCRT\CORECRT_WSTDLIB.H
C:\PROGRAM FILES (X86)\WINDOWS KITS\10\INCLUDE\10.0.16299.0\UCRT\MATH.H
C:\PROGRAM FILES (X86)\WINDOWS KITS\10\INCLUDE\10.0.16299.0\UCRT\CORECRT_MATH.H
C:\VISUAL STUDIO\VC\TOOLS\MSVC\14.11.25503\INCLUDE\XTGMATH.H
C:\VISUAL STUDIO\VC\TOOLS\MSVC\14.11.25503\INCLUDE\XTR1COMMON
C:\VISUAL STUDIO\VC\TOOLS\MSVC\14.11.25503\INCLUDE\CSTDIO
C:\PROGRAM FILES (X86)\WINDOWS KITS\10\INCLUDE\10.0.16299.0\UCRT\STDIO.H
C:\PROGRAM FILES (X86)\WINDOWS KITS\10\INCLUDE\10.0.16299.0\UCRT\CORECRT_WSTDIO.H
C:\PROGRAM FILES (X86)\WINDOWS KITS\10\INCLUDE\10.0.16299.0\UCRT\CORECRT_STDIO_CONFIG.H
C:\VISUAL STUDIO\VC\TOOLS\MSVC\14.11.25503\INCLUDE\STREAMBUF
C:\VISUAL STUDIO\VC\TOOLS\MSVC\14.11.25503\INCLUDE\XIOSBASE
C:\VISUAL STUDIO\VC\TOOLS\MSVC\14.11.25503\INCLUDE\XLOCALE
C:\VISUAL STUDIO\VC\TOOLS\MSVC\14.11.25503\INCLUDE\CSTRING
C:\PROGRAM FILES (X86)\WINDOWS KITS\10\INCLUDE\10.0.16299.0\UCRT\STRING.H
C:\PROGRAM FILES (X86)\WINDOWS KITS\10\INCLUDE\10.0.16299.0\UCRT\CORECRT_MEMORY.H
C:\PROGRAM FILES (X86)\WINDOWS KITS\10\INCLUDE\10.0.16299.0\UCRT\CORECRT_MEMCPY_S.H
C:\PROGRAM FILES (X86)\WINDOWS KITS\10\INCLUDE\10.0.16299.0\UCRT\ERRNO.H
C:\VISUAL STUDIO\VC\TOOLS\MSVC\14.11.25503\INCLUDE\VCRUNTIME_STRING.H
C:\PROGRAM FILES (X86)\WINDOWS KITS\10\INCLUDE\10.0.16299.0\UCRT\CORECRT_WSTRING.H
C:\VISUAL STUDIO\VC\TOOLS\MSVC\14.11.25503\INCLUDE\STDEXCEPT
C:\VISUAL STUDIO\VC\TOOLS\MSVC\14.11.25503\INCLUDE\EXCEPTION
C:\VISUAL STUDIO\VC\TOOLS\MSVC\14.11.25503\INCLUDE\TYPE_TRAITS
C:\VISUAL STUDIO\VC\TOOLS\MSVC\14.11.25503\INCLUDE\XSTDDEF
C:\VISUAL STUDIO\VC\TOOLS\MSVC\14.11.25503\INCLUDE\CSTDDEF
C:\VISUAL STUDIO\VC\TOOLS\MSVC\14.11.25503\INCLUDE\INITIALIZER_LIST
C:\PROGRAM FILES (X86)\WINDOWS KITS\10\INCLUDE\10.0.16299.0\UCRT\MALLOC.H
C:\VISUAL STUDIO\VC\TOOLS\MSVC\14.11.25503\INCLUDE\VCRUNTIME_EXCEPTION.H
C:\VISUAL STUDIO\VC\TOOLS\MSVC\14.11.25503\INCLUDE\EH.H
C:\PROGRAM FILES (X86)\WINDOWS KITS\10\INCLUDE\10.0.16299.0\UCRT\CORECRT_TERMINATE.H
C:\VISUAL STUDIO\VC\TOOLS\MSVC\14.11.25503\INCLUDE\XSTRING
C:\VISUAL STUDIO\VC\TOOLS\MSVC\14.11.25503\INCLUDE\XMEMORY0
C:\VISUAL STUDIO\VC\TOOLS\MSVC\14.11.25503\INCLUDE\CSTDINT
C:\VISUAL STUDIO\VC\TOOLS\MSVC\14.11.25503\INCLUDE\STDINT.H
C:\VISUAL STUDIO\VC\TOOLS\MSVC\14.11.25503\INCLUDE\LIMITS
C:\VISUAL STUDIO\VC\TOOLS\MSVC\14.11.25503\INCLUDE\YMATH.H
C:\VISUAL STUDIO\VC\TOOLS\MSVC\14.11.25503\INCLUDE\CFLOAT
C:\PROGRAM FILES (X86)\WINDOWS KITS\10\INCLUDE\10.0.16299.0\UCRT\FLOAT.H
C:\VISUAL STUDIO\VC\TOOLS\MSVC\14.11.25503\INCLUDE\CWCHAR
C:\PROGRAM FILES (X86)\WINDOWS KITS\10\INCLUDE\10.0.16299.0\UCRT\WCHAR.H
C:\PROGRAM FILES (X86)\WINDOWS KITS\10\INCLUDE\10.0.16299.0\UCRT\CORECRT_WCONIO.H
C:\PROGRAM FILES (X86)\WINDOWS KITS\10\INCLUDE\10.0.16299.0\UCRT\CORECRT_WCTYPE.H
C:\PROGRAM FILES (X86)\WINDOWS KITS\10\INCLUDE\10.0.16299.0\UCRT\CORECRT_WDIRECT.H
C:\PROGRAM FILES (X86)\WINDOWS KITS\10\INCLUDE\10.0.16299.0\UCRT\CORECRT_WIO.H
C:\PROGRAM FILES (X86)\WINDOWS KITS\10\INCLUDE\10.0.16299.0\UCRT\CORECRT_SHARE.H
C:\PROGRAM FILES (X86)\WINDOWS KITS\10\INCLUDE\10.0.16299.0\UCRT\CORECRT_WPROCESS.H
C:\PROGRAM FILES (X86)\WINDOWS KITS\10\INCLUDE\10.0.16299.0\UCRT\CORECRT_WTIME.H
C:\PROGRAM FILES (X86)\WINDOWS KITS\10\INCLUDE\10.0.16299.0\UCRT\SYS\STAT.H
C:\PROGRAM FILES (X86)\WINDOWS KITS\10\INCLUDE\10.0.16299.0\UCRT\SYS\TYPES.H
C:\VISUAL STUDIO\VC\TOOLS\MSVC\14.11.25503\INCLUDE\NEW
C:\VISUAL STUDIO\VC\TOOLS\MSVC\14.11.25503\INCLUDE\VCRUNTIME_NEW.H
C:\VISUAL STUDIO\VC\TOOLS\MSVC\14.11.25503\INCLUDE\XUTILITY
C:\VISUAL STUDIO\VC\TOOLS\MSVC\14.11.25503\INCLUDE\UTILITY
C:\VISUAL STUDIO\VC\TOOLS\MSVC\14.11.25503\INCLUDE\IOSFWD
C:\PROGRAM FILES (X86)\WINDOWS KITS\10\INCLUDE\10.0.16299.0\UCRT\CRTDBG.H
C:\VISUAL STUDIO\VC\TOOLS\MSVC\14.11.25503\INCLUDE\VCRUNTIME_NEW_DEBUG.H
C:\VISUAL STUDIO\VC\TOOLS\MSVC\14.11.25503\INCLUDE\XATOMIC0.H
C:\VISUAL STUDIO\VC\TOOLS\MSVC\14.11.25503\INCLUDE\INTRIN0.H
C:\VISUAL STUDIO\VC\TOOLS\MSVC\14.11.25503\INCLUDE\TYPEINFO
C:\VISUAL STUDIO\VC\TOOLS\MSVC\14.11.25503\INCLUDE\VCRUNTIME_TYPEINFO.H
C:\VISUAL STUDIO\VC\TOOLS\MSVC\14.11.25503\INCLUDE\XLOCINFO
C:\VISUAL STUDIO\VC\TOOLS\MSVC\14.11.25503\INCLUDE\XLOCINFO.H
C:\PROGRAM FILES (X86)\WINDOWS KITS\10\INCLUDE\10.0.16299.0\UCRT\CTYPE.H
C:\PROGRAM FILES (X86)\WINDOWS KITS\10\INCLUDE\10.0.16299.0\UCRT\LOCALE.H
C:\VISUAL STUDIO\VC\TOOLS\MSVC\14.11.25503\INCLUDE\XFACET
C:\VISUAL STUDIO\VC\TOOLS\MSVC\14.11.25503\INCLUDE\SYSTEM_ERROR
C:\VISUAL STUDIO\VC\TOOLS\MSVC\14.11.25503\INCLUDE\CERRNO
C:\VISUAL STUDIO\VC\TOOLS\MSVC\14.11.25503\INCLUDE\XCALL_ONCE.H
C:\PROGRAM FILES (X86)\WINDOWS KITS\10\INCLUDE\10.0.16299.0\UCRT\SHARE.H
C:\VISUAL STUDIO\VC\TOOLS\MSVC\14.11.25503\INCLUDE\XSTRING_INSERT.H
C:\VISUAL STUDIO\VC\TOOLS\MSVC\14.11.25503\INCLUDE\STRSTREAM
^C:\C++\STUDIA\PROJECT1\PROJECT1\PINGWIN.CPP
C:\C++\STUDIA\PROJECT1\PROJECT1\PINGWIN.H
C:\C++\STUDIA\PROJECT1\PROJECT1\ZWIERZE.H
C:\VISUAL STUDIO\VC\TOOLS\MSVC\14.11.25503\INCLUDE\STRING
C:\VISUAL STUDIO\VC\TOOLS\MSVC\14.11.25503\INCLUDE\ISTREAM
C:\VISUAL STUDIO\VC\TOOLS\MSVC\14.11.25503\INCLUDE\OSTREAM
C:\VISUAL STUDIO\VC\TOOLS\MSVC\14.11.25503\INCLUDE\IOS
C:\VISUAL STUDIO\VC\TOOLS\MSVC\14.11.25503\INCLUDE\XLOCNUM
C:\VISUAL STUDIO\VC\TOOLS\MSVC\14.11.25503\INCLUDE\CLIMITS
C:\VISUAL STUDIO\VC\TOOLS\MSVC\14.11.25503\INCLUDE\YVALS.H
C:\VISUAL STUDIO\VC\TOOLS\MSVC\14.11.25503\INCLUDE\XKEYCHECK.H
C:\VISUAL STUDIO\VC\TOOLS\MSVC\14.11.25503\INCLUDE\CRTDEFS.H
C:\VISUAL STUDIO\VC\TOOLS\MSVC\14.11.25503\INCLUDE\VCRUNTIME.H
C:\VISUAL STUDIO\VC\TOOLS\MSVC\14.11.25503\INCLUDE\SAL.H
C:\VISUAL STUDIO\VC\TOOLS\MSVC\14.11.25503\INCLUDE\CONCURRENCYSAL.H
C:\VISUAL STUDIO\VC\TOOLS\MSVC\14.11.25503\INCLUDE\VADEFS.H
C:\PROGRAM FILES (X86)\WINDOWS KITS\10\INCLUDE\10.0.16299.0\UCRT\CORECRT.H
C:\VISUAL STUDIO\VC\TOOLS\MSVC\14.11.25503\INCLUDE\USE_ANSI.H
C:\VISUAL STUDIO\VC\TOOLS\MSVC\14.11.25503\INCLUDE\LIMITS.H
C:\VISUAL STUDIO\VC\TOOLS\MSVC\14.11.25503\INCLUDE\CMATH
C:\VISUAL STUDIO\VC\TOOLS\MSVC\14.11.25503\INCLUDE\CSTDLIB
C:\PROGRAM FILES (X86)\WINDOWS KITS\10\INCLUDE\10.0.16299.0\UCRT\STDLIB.H
C:\PROGRAM FILES (X86)\WINDOWS KITS\10\INCLUDE\10.0.16299.0\UCRT\CORECRT_MALLOC.H
C:\PROGRAM FILES (X86)\WINDOWS KITS\10\INCLUDE\10.0.16299.0\UCRT\CORECRT_SEARCH.H
C:\PROGRAM FILES (X86)\WINDOWS KITS\10\INCLUDE\10.0.16299.0\UCRT\STDDEF.H
C:\PROGRAM FILES (X86)\WINDOWS KITS\10\INCLUDE\10.0.16299.0\UCRT\CORECRT_WSTDLIB.H
C:\PROGRAM FILES (X86)\WINDOWS KITS\10\INCLUDE\10.0.16299.0\UCRT\MATH.H
C:\PROGRAM FILES (X86)\WINDOWS KITS\10\INCLUDE\10.0.16299.0\UCRT\CORECRT_MATH.H
C:\VISUAL STUDIO\VC\TOOLS\MSVC\14.11.25503\INCLUDE\XTGMATH.H
C:\VISUAL STUDIO\VC\TOOLS\MSVC\14.11.25503\INCLUDE\XTR1COMMON
C:\VISUAL STUDIO\VC\TOOLS\MSVC\14.11.25503\INCLUDE\CSTDIO
C:\PROGRAM FILES (X86)\WINDOWS KITS\10\INCLUDE\10.0.16299.0\UCRT\STDIO.H
C:\PROGRAM FILES (X86)\WINDOWS KITS\10\INCLUDE\10.0.16299.0\UCRT\CORECRT_WSTDIO.H
C:\PROGRAM FILES (X86)\WINDOWS KITS\10\INCLUDE\10.0.16299.0\UCRT\CORECRT_STDIO_CONFIG.H
C:\VISUAL STUDIO\VC\TOOLS\MSVC\14.11.25503\INCLUDE\STREAMBUF
C:\VISUAL STUDIO\VC\TOOLS\MSVC\14.11.25503\INCLUDE\XIOSBASE
C:\VISUAL STUDIO\VC\TOOLS\MSVC\14.11.25503\INCLUDE\XLOCALE
C:\VISUAL STUDIO\VC\TOOLS\MSVC\14.11.25503\INCLUDE\CSTRING
C:\PROGRAM FILES (X86)\WINDOWS KITS\10\INCLUDE\10.0.16299.0\UCRT\STRING.H
C:\PROGRAM FILES (X86)\WINDOWS KITS\10\INCLUDE\10.0.16299.0\UCRT\CORECRT_MEMORY.H
C:\PROGRAM FILES (X86)\WINDOWS KITS\10\INCLUDE\10.0.16299.0\UCRT\CORECRT_MEMCPY_S.H
C:\PROGRAM FILES (X86)\WINDOWS KITS\10\INCLUDE\10.0.16299.0\UCRT\ERRNO.H
C:\VISUAL STUDIO\VC\TOOLS\MSVC\14.11.25503\INCLUDE\VCRUNTIME_STRING.H
C:\PROGRAM FILES (X86)\WINDOWS KITS\10\INCLUDE\10.0.16299.0\UCRT\CORECRT_WSTRING.H
C:\VISUAL STUDIO\VC\TOOLS\MSVC\14.11.25503\INCLUDE\STDEXCEPT
C:\VISUAL STUDIO\VC\TOOLS\MSVC\14.11.25503\INCLUDE\EXCEPTION
C:\VISUAL STUDIO\VC\TOOLS\MSVC\14.11.25503\INCLUDE\TYPE_TRAITS
C:\VISUAL STUDIO\VC\TOOLS\MSVC\14.11.25503\INCLUDE\XSTDDEF
C:\VISUAL STUDIO\VC\TOOLS\MSVC\14.11.25503\INCLUDE\CSTDDEF
C:\VISUAL STUDIO\VC\TOOLS\MSVC\14.11.25503\INCLUDE\INITIALIZER_LIST
C:\PROGRAM FILES (X86)\WINDOWS KITS\10\INCLUDE\10.0.16299.0\UCRT\MALLOC.H
C:\VISUAL STUDIO\VC\TOOLS\MSVC\14.11.25503\INCLUDE\VCRUNTIME_EXCEPTION.H
C:\VISUAL STUDIO\VC\TOOLS\MSVC\14.11.25503\INCLUDE\EH.H
C:\PROGRAM FILES (X86)\WINDOWS KITS\10\INCLUDE\10.0.16299.0\UCRT\CORECRT_TERMINATE.H
C:\VISUAL STUDIO\VC\TOOLS\MSVC\14.11.25503\INCLUDE\XSTRING
C:\VISUAL STUDIO\VC\TOOLS\MSVC\14.11.25503\INCLUDE\XMEMORY0
C:\VISUAL STUDIO\VC\TOOLS\MSVC\14.11.25503\INCLUDE\CSTDINT
C:\VISUAL STUDIO\VC\TOOLS\MSVC\14.11.25503\INCLUDE\STDINT.H
C:\VISUAL STUDIO\VC\TOOLS\MSVC\14.11.25503\INCLUDE\LIMITS
C:\VISUAL STUDIO\VC\TOOLS\MSVC\14.11.25503\INCLUDE\YMATH.H
C:\VISUAL STUDIO\VC\TOOLS\MSVC\14.11.25503\INCLUDE\CFLOAT
C:\PROGRAM FILES (X86)\WINDOWS KITS\10\INCLUDE\10.0.16299.0\UCRT\FLOAT.H
C:\VISUAL STUDIO\VC\TOOLS\MSVC\14.11.25503\INCLUDE\CWCHAR
C:\PROGRAM FILES (X86)\WINDOWS KITS\10\INCLUDE\10.0.16299.0\UCRT\WCHAR.H
C:\PROGRAM FILES (X86)\WINDOWS KITS\10\INCLUDE\10.0.16299.0\UCRT\CORECRT_WCONIO.H
C:\PROGRAM FILES (X86)\WINDOWS KITS\10\INCLUDE\10.0.16299.0\UCRT\CORECRT_WCTYPE.H
C:\PROGRAM FILES (X86)\WINDOWS KITS\10\INCLUDE\10.0.16299.0\UCRT\CORECRT_WDIRECT.H
C:\PROGRAM FILES (X86)\WINDOWS KITS\10\INCLUDE\10.0.16299.0\UCRT\CORECRT_WIO.H
C:\PROGRAM FILES (X86)\WINDOWS KITS\10\INCLUDE\10.0.16299.0\UCRT\CORECRT_SHARE.H
C:\PROGRAM FILES (X86)\WINDOWS KITS\10\INCLUDE\10.0.16299.0\UCRT\CORECRT_WPROCESS.H
C:\PROGRAM FILES (X86)\WINDOWS KITS\10\INCLUDE\10.0.16299.0\UCRT\CORECRT_WTIME.H
C:\PROGRAM FILES (X86)\WINDOWS KITS\10\INCLUDE\10.0.16299.0\UCRT\SYS\STAT.H
C:\PROGRAM FILES (X86)\WINDOWS KITS\10\INCLUDE\10.0.16299.0\UCRT\SYS\TYPES.H
C:\VISUAL STUDIO\VC\TOOLS\MSVC\14.11.25503\INCLUDE\NEW
C:\VISUAL STUDIO\VC\TOOLS\MSVC\14.11.25503\INCLUDE\VCRUNTIME_NEW.H
C:\VISUAL STUDIO\VC\TOOLS\MSVC\14.11.25503\INCLUDE\XUTILITY
C:\VISUAL STUDIO\VC\TOOLS\MSVC\14.11.25503\INCLUDE\UTILITY
C:\VISUAL STUDIO\VC\TOOLS\MSVC\14.11.25503\INCLUDE\IOSFWD
C:\PROGRAM FILES (X86)\WINDOWS KITS\10\INCLUDE\10.0.16299.0\UCRT\CRTDBG.H
C:\VISUAL STUDIO\VC\TOOLS\MSVC\14.11.25503\INCLUDE\VCRUNTIME_NEW_DEBUG.H
C:\VISUAL STUDIO\VC\TOOLS\MSVC\14.11.25503\INCLUDE\XATOMIC0.H
C:\VISUAL STUDIO\VC\TOOLS\MSVC\14.11.25503\INCLUDE\INTRIN0.H
C:\VISUAL STUDIO\VC\TOOLS\MSVC\14.11.25503\INCLUDE\TYPEINFO
C:\VISUAL STUDIO\VC\TOOLS\MSVC\14.11.25503\INCLUDE\VCRUNTIME_TYPEINFO.H
C:\VISUAL STUDIO\VC\TOOLS\MSVC\14.11.25503\INCLUDE\XLOCINFO
C:\VISUAL STUDIO\VC\TOOLS\MSVC\14.11.25503\INCLUDE\XLOCINFO.H
C:\PROGRAM FILES (X86)\WINDOWS KITS\10\INCLUDE\10.0.16299.0\UCRT\CTYPE.H
C:\PROGRAM FILES (X86)\WINDOWS KITS\10\INCLUDE\10.0.16299.0\UCRT\LOCALE.H
C:\VISUAL STUDIO\VC\TOOLS\MSVC\14.11.25503\INCLUDE\XFACET
C:\VISUAL STUDIO\VC\TOOLS\MSVC\14.11.25503\INCLUDE\SYSTEM_ERROR
C:\VISUAL STUDIO\VC\TOOLS\MSVC\14.11.25503\INCLUDE\CERRNO
C:\VISUAL STUDIO\VC\TOOLS\MSVC\14.11.25503\INCLUDE\XCALL_ONCE.H
C:\PROGRAM FILES (X86)\WINDOWS KITS\10\INCLUDE\10.0.16299.0\UCRT\SHARE.H
C:\VISUAL STUDIO\VC\TOOLS\MSVC\14.11.25503\INCLUDE\XSTRING_INSERT.H
^C:\C++\STUDIA\PROJECT1\PROJECT1\LEW.CPP
C:\C++\STUDIA\PROJECT1\PROJECT1\LEW.H
C:\VISUAL STUDIO\VC\TOOLS\MSVC\14.11.25503\INCLUDE\STRING
C:\VISUAL STUDIO\VC\TOOLS\MSVC\14.11.25503\INCLUDE\ISTREAM
C:\VISUAL STUDIO\VC\TOOLS\MSVC\14.11.25503\INCLUDE\OSTREAM
C:\VISUAL STUDIO\VC\TOOLS\MSVC\14.11.25503\INCLUDE\IOS
C:\VISUAL STUDIO\VC\TOOLS\MSVC\14.11.25503\INCLUDE\XLOCNUM
C:\VISUAL STUDIO\VC\TOOLS\MSVC\14.11.25503\INCLUDE\CLIMITS
C:\VISUAL STUDIO\VC\TOOLS\MSVC\14.11.25503\INCLUDE\YVALS.H
C:\VISUAL STUDIO\VC\TOOLS\MSVC\14.11.25503\INCLUDE\XKEYCHECK.H
C:\VISUAL STUDIO\VC\TOOLS\MSVC\14.11.25503\INCLUDE\CRTDEFS.H
C:\VISUAL STUDIO\VC\TOOLS\MSVC\14.11.25503\INCLUDE\VCRUNTIME.H
C:\VISUAL STUDIO\VC\TOOLS\MSVC\14.11.25503\INCLUDE\SAL.H
C:\VISUAL STUDIO\VC\TOOLS\MSVC\14.11.25503\INCLUDE\CONCURRENCYSAL.H
C:\VISUAL STUDIO\VC\TOOLS\MSVC\14.11.25503\INCLUDE\VADEFS.H
C:\PROGRAM FILES (X86)\WINDOWS KITS\10\INCLUDE\10.0.16299.0\UCRT\CORECRT.H
C:\VISUAL STUDIO\VC\TOOLS\MSVC\14.11.25503\INCLUDE\USE_ANSI.H
C:\VISUAL STUDIO\VC\TOOLS\MSVC\14.11.25503\INCLUDE\LIMITS.H
C:\VISUAL STUDIO\VC\TOOLS\MSVC\14.11.25503\INCLUDE\CMATH
C:\VISUAL STUDIO\VC\TOOLS\MSVC\14.11.25503\INCLUDE\CSTDLIB
C:\PROGRAM FILES (X86)\WINDOWS KITS\10\INCLUDE\10.0.16299.0\UCRT\STDLIB.H
C:\PROGRAM FILES (X86)\WINDOWS KITS\10\INCLUDE\10.0.16299.0\UCRT\CORECRT_MALLOC.H
C:\PROGRAM FILES (X86)\WINDOWS KITS\10\INCLUDE\10.0.16299.0\UCRT\CORECRT_SEARCH.H
C:\PROGRAM FILES (X86)\WINDOWS KITS\10\INCLUDE\10.0.16299.0\UCRT\STDDEF.H
C:\PROGRAM FILES (X86)\WINDOWS KITS\10\INCLUDE\10.0.16299.0\UCRT\CORECRT_WSTDLIB.H
C:\PROGRAM FILES (X86)\WINDOWS KITS\10\INCLUDE\10.0.16299.0\UCRT\MATH.H
C:\PROGRAM FILES (X86)\WINDOWS KITS\10\INCLUDE\10.0.16299.0\UCRT\CORECRT_MATH.H
C:\VISUAL STUDIO\VC\TOOLS\MSVC\14.11.25503\INCLUDE\XTGMATH.H
C:\VISUAL STUDIO\VC\TOOLS\MSVC\14.11.25503\INCLUDE\XTR1COMMON
C:\VISUAL STUDIO\VC\TOOLS\MSVC\14.11.25503\INCLUDE\CSTDIO
C:\PROGRAM FILES (X86)\WINDOWS KITS\10\INCLUDE\10.0.16299.0\UCRT\STDIO.H
C:\PROGRAM FILES (X86)\WINDOWS KITS\10\INCLUDE\10.0.16299.0\UCRT\CORECRT_WSTDIO.H
C:\PROGRAM FILES (X86)\WINDOWS KITS\10\INCLUDE\10.0.16299.0\UCRT\CORECRT_STDIO_CONFIG.H
C:\VISUAL STUDIO\VC\TOOLS\MSVC\14.11.25503\INCLUDE\STREAMBUF
C:\VISUAL STUDIO\VC\TOOLS\MSVC\14.11.25503\INCLUDE\XIOSBASE
C:\VISUAL STUDIO\VC\TOOLS\MSVC\14.11.25503\INCLUDE\XLOCALE
C:\VISUAL STUDIO\VC\TOOLS\MSVC\14.11.25503\INCLUDE\CSTRING
C:\PROGRAM FILES (X86)\WINDOWS KITS\10\INCLUDE\10.0.16299.0\UCRT\STRING.H
C:\PROGRAM FILES (X86)\WINDOWS KITS\10\INCLUDE\10.0.16299.0\UCRT\CORECRT_MEMORY.H
C:\PROGRAM FILES (X86)\WINDOWS KITS\10\INCLUDE\10.0.16299.0\UCRT\CORECRT_MEMCPY_S.H
C:\PROGRAM FILES (X86)\WINDOWS KITS\10\INCLUDE\10.0.16299.0\UCRT\ERRNO.H
C:\VISUAL STUDIO\VC\TOOLS\MSVC\14.11.25503\INCLUDE\VCRUNTIME_STRING.H
C:\PROGRAM FILES (X86)\WINDOWS KITS\10\INCLUDE\10.0.16299.0\UCRT\CORECRT_WSTRING.H
C:\VISUAL STUDIO\VC\TOOLS\MSVC\14.11.25503\INCLUDE\STDEXCEPT
C:\VISUAL STUDIO\VC\TOOLS\MSVC\14.11.25503\INCLUDE\EXCEPTION
C:\VISUAL STUDIO\VC\TOOLS\MSVC\14.11.25503\INCLUDE\TYPE_TRAITS
C:\VISUAL STUDIO\VC\TOOLS\MSVC\14.11.25503\INCLUDE\XSTDDEF
C:\VISUAL STUDIO\VC\TOOLS\MSVC\14.11.25503\INCLUDE\CSTDDEF
C:\VISUAL STUDIO\VC\TOOLS\MSVC\14.11.25503\INCLUDE\INITIALIZER_LIST
C:\PROGRAM FILES (X86)\WINDOWS KITS\10\INCLUDE\10.0.16299.0\UCRT\MALLOC.H
C:\VISUAL STUDIO\VC\TOOLS\MSVC\14.11.25503\INCLUDE\VCRUNTIME_EXCEPTION.H
C:\VISUAL STUDIO\VC\TOOLS\MSVC\14.11.25503\INCLUDE\EH.H
C:\PROGRAM FILES (X86)\WINDOWS KITS\10\INCLUDE\10.0.16299.0\UCRT\CORECRT_TERMINATE.H
C:\VISUAL STUDIO\VC\TOOLS\MSVC\14.11.25503\INCLUDE\XSTRING
C:\VISUAL STUDIO\VC\TOOLS\MSVC\14.11.25503\INCLUDE\XMEMORY0
C:\VISUAL STUDIO\VC\TOOLS\MSVC\14.11.25503\INCLUDE\CSTDINT
C:\VISUAL STUDIO\VC\TOOLS\MSVC\14.11.25503\INCLUDE\STDINT.H
C:\VISUAL STUDIO\VC\TOOLS\MSVC\14.11.25503\INCLUDE\LIMITS
C:\VISUAL STUDIO\VC\TOOLS\MSVC\14.11.25503\INCLUDE\YMATH.H
C:\VISUAL STUDIO\VC\TOOLS\MSVC\14.11.25503\INCLUDE\CFLOAT
C:\PROGRAM FILES (X86)\WINDOWS KITS\10\INCLUDE\10.0.16299.0\UCRT\FLOAT.H
C:\VISUAL STUDIO\VC\TOOLS\MSVC\14.11.25503\INCLUDE\CWCHAR
C:\PROGRAM FILES (X86)\WINDOWS KITS\10\INCLUDE\10.0.16299.0\UCRT\WCHAR.H
C:\PROGRAM FILES (X86)\WINDOWS KITS\10\INCLUDE\10.0.16299.0\UCRT\CORECRT_WCONIO.H
C:\PROGRAM FILES (X86)\WINDOWS KITS\10\INCLUDE\10.0.16299.0\UCRT\CORECRT_WCTYPE.H
C:\PROGRAM FILES (X86)\WINDOWS KITS\10\INCLUDE\10.0.16299.0\UCRT\CORECRT_WDIRECT.H
C:\PROGRAM FILES (X86)\WINDOWS KITS\10\INCLUDE\10.0.16299.0\UCRT\CORECRT_WIO.H
C:\PROGRAM FILES (X86)\WINDOWS KITS\10\INCLUDE\10.0.16299.0\UCRT\CORECRT_SHARE.H
C:\PROGRAM FILES (X86)\WINDOWS KITS\10\INCLUDE\10.0.16299.0\UCRT\CORECRT_WPROCESS.H
C:\PROGRAM FILES (X86)\WINDOWS KITS\10\INCLUDE\10.0.16299.0\UCRT\CORECRT_WTIME.H
C:\PROGRAM FILES (X86)\WINDOWS KITS\10\INCLUDE\10.0.16299.0\UCRT\SYS\STAT.H
C:\PROGRAM FILES (X86)\WINDOWS KITS\10\INCLUDE\10.0.16299.0\UCRT\SYS\TYPES.H
C:\VISUAL STUDIO\VC\TOOLS\MSVC\14.11.25503\INCLUDE\NEW
C:\VISUAL STUDIO\VC\TOOLS\MSVC\14.11.25503\INCLUDE\VCRUNTIME_NEW.H
C:\VISUAL STUDIO\VC\TOOLS\MSVC\14.11.25503\INCLUDE\XUTILITY
C:\VISUAL STUDIO\VC\TOOLS\MSVC\14.11.25503\INCLUDE\UTILITY
C:\VISUAL STUDIO\VC\TOOLS\MSVC\14.11.25503\INCLUDE\IOSFWD
C:\PROGRAM FILES (X86)\WINDOWS KITS\10\INCLUDE\10.0.16299.0\UCRT\CRTDBG.H
C:\VISUAL STUDIO\VC\TOOLS\MSVC\14.11.25503\INCLUDE\VCRUNTIME_NEW_DEBUG.H
C:\VISUAL STUDIO\VC\TOOLS\MSVC\14.11.25503\INCLUDE\XATOMIC0.H
C:\VISUAL STUDIO\VC\TOOLS\MSVC\14.11.25503\INCLUDE\INTRIN0.H
C:\VISUAL STUDIO\VC\TOOLS\MSVC\14.11.25503\INCLUDE\TYPEINFO
C:\VISUAL STUDIO\VC\TOOLS\MSVC\14.11.25503\INCLUDE\VCRUNTIME_TYPEINFO.H
C:\VISUAL STUDIO\VC\TOOLS\MSVC\14.11.25503\INCLUDE\XLOCINFO
C:\VISUAL STUDIO\VC\TOOLS\MSVC\14.11.25503\INCLUDE\XLOCINFO.H
C:\PROGRAM FILES (X86)\WINDOWS KITS\10\INCLUDE\10.0.16299.0\UCRT\CTYPE.H
C:\PROGRAM FILES (X86)\WINDOWS KITS\10\INCLUDE\10.0.16299.0\UCRT\LOCALE.H
C:\VISUAL STUDIO\VC\TOOLS\MSVC\14.11.25503\INCLUDE\XFACET
C:\VISUAL STUDIO\VC\TOOLS\MSVC\14.11.25503\INCLUDE\SYSTEM_ERROR
C:\VISUAL STUDIO\VC\TOOLS\MSVC\14.11.25503\INCLUDE\CERRNO
C:\VISUAL STUDIO\VC\TOOLS\MSVC\14.11.25503\INCLUDE\XCALL_ONCE.H
C:\PROGRAM FILES (X86)\WINDOWS KITS\10\INCLUDE\10.0.16299.0\UCRT\SHARE.H
C:\VISUAL STUDIO\VC\TOOLS\MSVC\14.11.25503\INCLUDE\XSTRING_INSERT.H
C:\C++\STUDIA\PROJECT1\PROJECT1\ZWIERZE.H
C:\C++\STUDIA\PROJECT1\PROJECT1\SLON.H
C:\VISUAL STUDIO\VC\TOOLS\MSVC\14.11.25503\INCLUDE\STRSTREAM
C:\WINDOWS\GLOBALIZATION\SORTING\SORTDEFAULT.NLS
C:\VISUAL STUDIO\VC\TOOLS\MSVC\14.11.25503\BIN\HOSTX86\X86\1045\CLUI.DLL
C:\WINDOWS\SYSTEM32\TZRES.DLL
C:\VISUAL STUDIO\VC\TOOLS\MSVC\14.11.25503\BIN\HOSTX86\X86\MSPDBSRV.EXE
